…
Для начала необходимо определить рабочие часы: в нашем случае это время
с 16:00 до 23:59, если судить по движению трафика

``` r
work_time <- df %>%
  group_by(hour(timestamp)) %>%
  summarise(sum_traffic = sum(bytes)) %>%
  arrange(desc(sum_traffic))

work_time %>% collect()
```

    # A tibble: 24 × 2
       `hour(timestamp)`  sum_traffic
                   <int>      <int64>
     1                23 274018545181
     2                18 273957078313
     3                16 273911433028
     4                20 273906852618
     5                21 273870082226
     6                22 273865554455
     7                19 273843857318
     8                17 273636993943
     9                 7  10566144869
    10                 8  10471822189
    # ℹ 14 more rows
…
